Version 4
SHEET 1 948 680
WIRE 528 96 96 96
WIRE 96 112 96 96
WIRE 608 208 608 96
WIRE 608 208 480 208
WIRE 96 240 96 192
WIRE 480 288 480 208
WIRE 528 288 480 288
WIRE 704 288 608 288
WIRE 912 288 768 288
WIRE 912 336 912 288
FLAG 96 240 0
FLAG 912 336 0
SYMBOL voltage 96 96 R0
WINDOW 123 0 0 Left 0
WINDOW 39 0 0 Left 0
SYMATTR InstName V1
SYMATTR Value 3v
SYMBOL res 624 80 R90
WINDOW 0 0 56 VBottom 2
WINDOW 3 32 56 VTop 2
SYMATTR InstName R1
SYMATTR Value {R}
SYMBOL LED 704 304 R270
WINDOW 0 72 32 VTop 2
WINDOW 3 0 32 VBottom 2
SYMATTR InstName D1
SYMBOL res 624 272 R90
WINDOW 0 0 56 VBottom 2
WINDOW 3 32 56 VTop 2
SYMATTR InstName R2
SYMATTR Value 1k
TEXT 62 264 Left 2 !.dc V1 0 5 1
TEXT 184 -32 Left 2 !.step param R 1 10k 1k
