EESchema Schematic File Version 4
EELAYER 29 0
EELAYER END
$Descr A4 11693 8268
encoding utf-8
Sheet 1 1
Title ""
Date ""
Rev ""
Comp ""
Comment1 ""
Comment2 ""
Comment3 ""
Comment4 ""
$EndDescr
Wire Wire Line
	5150 1350 5150 2250
$Comp
L Device:R_Small_US R8
U 1 1 60B712F1
P 5150 2350
F 0 "R8" H 5218 2396 50  0000 L CNN
F 1 "1k" H 5218 2305 50  0000 L CNN
F 2 "" H 5150 2350 50  0001 C CNN
F 3 "~" H 5150 2350 50  0001 C CNN
	1    5150 2350
	1    0    0    -1  
$EndComp
Wire Wire Line
	5150 2450 5150 4250
$Comp
L Device:R_Small_US R9
U 1 1 60B8E8F4
P 5750 1800
F 0 "R9" H 5818 1846 50  0000 L CNN
F 1 "100" H 5818 1755 50  0000 L CNN
F 2 "" H 5750 1800 50  0001 C CNN
F 3 "~" H 5750 1800 50  0001 C CNN
	1    5750 1800
	1    0    0    -1  
$EndComp
$Comp
L Device:R_Small_US R10
U 1 1 60B90132
P 6650 1800
F 0 "R10" H 6718 1846 50  0000 L CNN
F 1 "100" H 6718 1755 50  0000 L CNN
F 2 "" H 6650 1800 50  0001 C CNN
F 3 "~" H 6650 1800 50  0001 C CNN
	1    6650 1800
	1    0    0    -1  
$EndComp
$Comp
L Device:LED D1
U 1 1 60B9093F
P 5750 2600
F 0 "D1" V 5789 2483 50  0000 R CNN
F 1 "0.7" V 5698 2483 50  0000 R CNN
F 2 "" H 5750 2600 50  0001 C CNN
F 3 "~" H 5750 2600 50  0001 C CNN
	1    5750 2600
	0    -1   -1   0   
$EndComp
$Comp
L Device:LED D2
U 1 1 60B91D1A
P 6650 2650
F 0 "D2" V 6689 2533 50  0000 R CNN
F 1 "0.7" V 6598 2533 50  0000 R CNN
F 2 "" H 6650 2650 50  0001 C CNN
F 3 "~" H 6650 2650 50  0001 C CNN
	1    6650 2650
	0    -1   -1   0   
$EndComp
$Comp
L Device:R_Small_US R12
U 1 1 60B93244
P 6250 3200
F 0 "R12" V 6045 3200 50  0000 C CNN
F 1 "1k" V 6136 3200 50  0000 C CNN
F 2 "" H 6250 3200 50  0001 C CNN
F 3 "~" H 6250 3200 50  0001 C CNN
	1    6250 3200
	0    1    1    0   
$EndComp
$Comp
L Device:Q_NPN_BEC Q3
U 1 1 60B949D1
P 6550 3200
F 0 "Q3" H 6741 3246 50  0000 L CNN
F 1 "Q_NPN_BEC" H 6741 3155 50  0000 L CNN
F 2 "" H 6750 3300 50  0001 C CNN
F 3 "~" H 6550 3200 50  0001 C CNN
	1    6550 3200
	1    0    0    -1  
$EndComp
$Comp
L Device:Q_NPN_BEC Q4
U 1 1 60B969EF
P 7750 3200
F 0 "Q4" H 7941 3246 50  0000 L CNN
F 1 "Q_NPN_BEC" H 7941 3155 50  0000 L CNN
F 2 "" H 7950 3300 50  0001 C CNN
F 3 "~" H 7750 3200 50  0001 C CNN
	1    7750 3200
	1    0    0    -1  
$EndComp
$Comp
L Device:R_Small_US R13
U 1 1 60B977B8
P 7450 3200
F 0 "R13" V 7245 3200 50  0000 C CNN
F 1 "1k" V 7336 3200 50  0000 C CNN
F 2 "" H 7450 3200 50  0001 C CNN
F 3 "~" H 7450 3200 50  0001 C CNN
	1    7450 3200
	0    1    1    0   
$EndComp
$Comp
L Device:LED D3
U 1 1 60B9815D
P 7850 2650
F 0 "D3" V 7889 2533 50  0000 R CNN
F 1 "0.7" V 7798 2533 50  0000 R CNN
F 2 "" H 7850 2650 50  0001 C CNN
F 3 "~" H 7850 2650 50  0001 C CNN
	1    7850 2650
	0    -1   -1   0   
$EndComp
$Comp
L Device:R_Small_US R11
U 1 1 60B98C10
P 7850 1800
F 0 "R11" H 7918 1846 50  0000 L CNN
F 1 "100" H 7918 1755 50  0000 L CNN
F 2 "" H 7850 1800 50  0001 C CNN
F 3 "~" H 7850 1800 50  0001 C CNN
	1    7850 1800
	1    0    0    -1  
$EndComp
Wire Wire Line
	5150 1350 5750 1350
Wire Wire Line
	7850 1350 7850 1700
Wire Wire Line
	7850 4250 6650 4250
Wire Wire Line
	7850 1900 7850 2500
Wire Wire Line
	7850 2800 7850 3000
Wire Wire Line
	7850 3400 7850 4250
Wire Wire Line
	6650 1350 6650 1700
Wire Wire Line
	6650 1900 6650 2500
Wire Wire Line
	6650 2800 6650 3000
Connection ~ 6650 1350
Wire Wire Line
	6650 1350 7850 1350
Wire Wire Line
	6650 3400 6650 4250
Connection ~ 6650 4250
Wire Wire Line
	6650 4250 5750 4250
Wire Wire Line
	5750 2750 5750 4250
Connection ~ 5750 4250
Wire Wire Line
	5750 4250 5150 4250
Wire Wire Line
	5750 2450 5750 1900
Wire Wire Line
	5750 1700 5750 1350
Connection ~ 5750 1350
Wire Wire Line
	5750 1350 6650 1350
Text GLabel 6150 3200 0    50   Input ~ 0
control
Text GLabel 7350 3200 0    50   Input ~ 0
control
Wire Wire Line
	5150 1350 4400 1350
Connection ~ 5150 1350
Text GLabel 4400 1350 0    50   Input ~ 0
Input_from_voltage_regulator
$Comp
L power:GND #PWR?
U 1 1 60BA9988
P 4650 4450
F 0 "#PWR?" H 4650 4200 50  0001 C CNN
F 1 "GND" H 4655 4277 50  0000 C CNN
F 2 "" H 4650 4450 50  0001 C CNN
F 3 "" H 4650 4450 50  0001 C CNN
	1    4650 4450
	1    0    0    -1  
$EndComp
Wire Wire Line
	5150 4250 4650 4250
Wire Wire Line
	4650 4250 4650 4450
Connection ~ 5150 4250
$EndSCHEMATC
