EESchema Schematic File Version 4
EELAYER 30 0
EELAYER END
$Descr A4 11693 8268
encoding utf-8
Sheet 1 1
Title ""
Date ""
Rev ""
Comp ""
Comment1 ""
Comment2 ""
Comment3 ""
Comment4 ""
$EndDescr
$Comp
L Device:R_Small_US R15
U 1 1 60BAB7D3
P 3850 2350
F 0 "R15" V 3645 2350 50  0000 C CNN
F 1 "1.6k" V 3736 2350 50  0000 C CNN
F 2 "" H 3850 2350 50  0001 C CNN
F 3 "~" H 3850 2350 50  0001 C CNN
	1    3850 2350
	0    1    1    0   
$EndComp
$Comp
L Device:R_Small_US R16
U 1 1 60BAD12D
P 4050 2800
F 0 "R16" H 4118 2846 50  0000 L CNN
F 1 "3.3k" H 4118 2755 50  0000 L CNN
F 2 "" H 4050 2800 50  0001 C CNN
F 3 "~" H 4050 2800 50  0001 C CNN
	1    4050 2800
	1    0    0    -1  
$EndComp
$Comp
L Device:R_Small_US R17
U 1 1 60BAEB15
P 4750 2950
F 0 "R17" H 4818 2996 50  0000 L CNN
F 1 "122" H 4818 2905 50  0000 L CNN
F 2 "" H 4750 2950 50  0001 C CNN
F 3 "~" H 4750 2950 50  0001 C CNN
	1    4750 2950
	1    0    0    -1  
$EndComp
Wire Wire Line
	4750 2350 4750 2850
Wire Wire Line
	3950 2350 4050 2350
$Comp
L Device:R_Small_US R20
U 1 1 60BBA14D
P 5550 3750
F 0 "R20" H 5618 3796 50  0000 L CNN
F 1 "20k" H 5618 3705 50  0000 L CNN
F 2 "" H 5550 3750 50  0001 C CNN
F 3 "~" H 5550 3750 50  0001 C CNN
	1    5550 3750
	1    0    0    -1  
$EndComp
Wire Wire Line
	4750 4150 5150 4150
Wire Wire Line
	5550 3850 5550 4150
Wire Wire Line
	5150 4150 5150 4300
Connection ~ 5150 4150
Wire Wire Line
	5150 4150 5550 4150
Wire Wire Line
	4050 2350 4050 2700
Connection ~ 4050 2350
Wire Wire Line
	4050 2350 4750 2350
$Comp
L Device:R_Small_US R19
U 1 1 60BD2742
P 4750 4000
F 0 "R19" H 4818 4046 50  0000 L CNN
F 1 "5" H 4818 3955 50  0000 L CNN
F 2 "" H 4750 4000 50  0001 C CNN
F 3 "~" H 4750 4000 50  0001 C CNN
	1    4750 4000
	1    0    0    -1  
$EndComp
$Comp
L Amplifier_Operational:LM358 U2
U 1 1 60BD68A9
P 6250 3300
F 0 "U2" H 6250 3667 50  0000 C CNN
F 1 "LM358" H 6250 3576 50  0000 C CNN
F 2 "" H 6250 3300 50  0001 C CNN
F 3 "http://www.ti.com/lit/ds/symlink/lm2904-n.pdf" H 6250 3300 50  0001 C CNN
	1    6250 3300
	1    0    0    -1  
$EndComp
Wire Wire Line
	3250 2350 3350 2350
$Comp
L Device:R_Small_US R14
U 1 1 60B785A0
P 3450 2350
F 0 "R14" V 3245 2350 50  0000 C CNN
F 1 "100" V 3336 2350 50  0000 C CNN
F 2 "" H 3450 2350 50  0001 C CNN
F 3 "~" H 3450 2350 50  0001 C CNN
	1    3450 2350
	0    1    1    0   
$EndComp
Wire Wire Line
	3550 2350 3750 2350
$Comp
L Sensor_Temperature:PT100 TH1
U 1 1 60B86157
P 4750 3600
F 0 "TH1" H 4848 3646 50  0000 L CNN
F 1 "PT100" H 4848 3555 50  0000 L CNN
F 2 "" H 4750 3650 50  0001 C CNN
F 3 "https://www.heraeus.com/media/media/group/doc_group/products_1/hst/sot_to/de_15/to_92_d.pdf" H 4750 3650 50  0001 C CNN
	1    4750 3600
	1    0    0    -1  
$EndComp
Wire Wire Line
	4750 3050 4750 3200
Wire Wire Line
	4750 4100 4750 4150
Wire Wire Line
	4750 3750 4750 3900
Wire Wire Line
	6550 3300 6900 3300
Wire Wire Line
	5550 3050 5550 3400
Wire Wire Line
	5950 3200 4750 3200
Connection ~ 4750 3200
Wire Wire Line
	4750 3200 4750 3450
Connection ~ 5550 3400
Wire Wire Line
	5550 3400 5550 3650
$Comp
L Device:R_Small_US R21
U 1 1 60BC514E
P 6550 3850
F 0 "R21" H 6618 3896 50  0000 L CNN
F 1 "100k" H 6618 3805 50  0000 L CNN
F 2 "" H 6550 3850 50  0001 C CNN
F 3 "~" H 6550 3850 50  0001 C CNN
	1    6550 3850
	0    -1   -1   0   
$EndComp
Wire Wire Line
	6900 3300 6900 3850
Wire Wire Line
	5950 3850 5950 3400
Wire Wire Line
	5950 3850 6450 3850
Wire Wire Line
	6650 3850 6900 3850
Connection ~ 6900 3300
Connection ~ 5950 3400
Wire Wire Line
	5550 3400 5950 3400
Wire Wire Line
	6900 3300 7150 3300
Wire Wire Line
	4050 4300 4750 4300
Wire Wire Line
	4050 2900 4050 4300
$Comp
L power:GND #PWR?
U 1 1 60BB5C43
P 4750 4350
F 0 "#PWR?" H 4750 4100 50  0001 C CNN
F 1 "GND" H 4755 4177 50  0000 C CNN
F 2 "" H 4750 4350 50  0001 C CNN
F 3 "" H 4750 4350 50  0001 C CNN
	1    4750 4350
	1    0    0    -1  
$EndComp
Wire Wire Line
	4750 4300 4750 4350
Connection ~ 4750 4300
Wire Wire Line
	4750 4300 5150 4300
Text GLabel 7150 3300 2    50   Input ~ 0
Vout
Wire Wire Line
	4750 2350 5550 2350
Connection ~ 4750 2350
$Comp
L Device:R_Small_US R18
U 1 1 60C4223D
P 5550 2950
F 0 "R18" H 5618 2996 50  0000 L CNN
F 1 "20k" H 5618 2905 50  0000 L CNN
F 2 "" H 5550 2950 50  0001 C CNN
F 3 "~" H 5550 2950 50  0001 C CNN
	1    5550 2950
	-1   0    0    1   
$EndComp
Wire Wire Line
	5550 2350 5550 2850
$EndSCHEMATC
