EESchema Schematic File Version 4
EELAYER 29 0
EELAYER END
$Descr A4 11693 8268
encoding utf-8
Sheet 1 1
Title ""
Date ""
Rev ""
Comp ""
Comment1 ""
Comment2 ""
Comment3 ""
Comment4 ""
$EndDescr
$Comp
L Device:R_Small_US R5
U 1 1 60B7126A
P 3400 1900
F 0 "R5" H 3468 1946 50  0000 L CNN
F 1 "1220" H 3468 1855 50  0000 L CNN
F 2 "" H 3400 1900 50  0001 C CNN
F 3 "~" H 3400 1900 50  0001 C CNN
	1    3400 1900
	1    0    0    -1  
$EndComp
$Comp
L Device:R_Small_US R1
U 1 1 60B71270
P 1400 2550
F 0 "R1" H 1468 2596 50  0000 L CNN
F 1 "11.7k" H 1468 2505 50  0000 L CNN
F 2 "" H 1400 2550 50  0001 C CNN
F 3 "~" H 1400 2550 50  0001 C CNN
	1    1400 2550
	1    0    0    -1  
$EndComp
$Comp
L Device:D_Zener D4
U 1 1 60B71276
P 1400 3400
F 0 "D4" V 1354 3479 50  0000 L CNN
F 1 "4.3V" V 1445 3479 50  0000 L CNN
F 2 "" H 1400 3400 50  0001 C CNN
F 3 "~" H 1400 3400 50  0001 C CNN
	1    1400 3400
	0    1    1    0   
$EndComp
$Comp
L Device:R_Small_US R7
U 1 1 60B71282
P 2850 2950
F 0 "R7" V 2645 2950 50  0000 C CNN
F 1 "716" V 2736 2950 50  0000 C CNN
F 2 "" H 2850 2950 50  0001 C CNN
F 3 "~" H 2850 2950 50  0001 C CNN
	1    2850 2950
	0    1    1    0   
$EndComp
$Comp
L Transistor_BJT:2N3904 Q1.2
U 1 1 60B71288
P 2650 1900
F 0 "Q1.2" V 2978 1900 50  0000 C CNN
F 1 "2N3904" V 2887 1900 50  0000 C CNN
F 2 "Package_TO_SOT_THT:TO-92_Inline" H 2850 1825 50  0001 L CIN
F 3 "https://www.fairchildsemi.com/datasheets/2N/2N3904.pdf" H 2650 1900 50  0001 L CNN
	1    2650 1900
	0    -1   -1   0   
$EndComp
$Comp
L Transistor_BJT:2N3904 Q1.1
U 1 1 60B7128E
P 2850 1450
F 0 "Q1.1" V 3178 1450 50  0000 C CNN
F 1 "2N3904" V 3087 1450 50  0000 C CNN
F 2 "Package_TO_SOT_THT:TO-92_Inline" H 3050 1375 50  0001 L CIN
F 3 "https://www.fairchildsemi.com/datasheets/2N/2N3904.pdf" H 2850 1450 50  0001 L CNN
	1    2850 1450
	0    -1   -1   0   
$EndComp
$Comp
L Device:R_Small_US R4
U 1 1 60B712A1
P 3700 1350
F 0 "R4" V 3495 1350 50  0000 C CNN
F 1 "1.77" V 3586 1350 50  0000 C CNN
F 2 "" H 3700 1350 50  0001 C CNN
F 3 "~" H 3700 1350 50  0001 C CNN
	1    3700 1350
	0    1    1    0   
$EndComp
Connection ~ 3400 1350
Wire Wire Line
	3400 1350 3600 1350
Wire Wire Line
	3400 1350 3400 1800
Wire Wire Line
	3400 2000 3400 2200
$Comp
L Device:R_Small_US R6
U 1 1 60B712B6
P 3400 2400
F 0 "R6" H 3468 2446 50  0000 L CNN
F 1 "10k" H 3468 2355 50  0000 L CNN
F 2 "" H 3400 2400 50  0001 C CNN
F 3 "~" H 3400 2400 50  0001 C CNN
	1    3400 2400
	1    0    0    -1  
$EndComp
$Comp
L Transistor_BJT:2N3904 Q2
U 1 1 60B712BC
P 4050 2850
F 0 "Q2" V 4378 2850 50  0000 C CNN
F 1 "2N3904" V 4287 2850 50  0000 C CNN
F 2 "Package_TO_SOT_THT:TO-92_Inline" H 4250 2775 50  0001 L CIN
F 3 "https://www.fairchildsemi.com/datasheets/2N/2N3904.pdf" H 4050 2850 50  0001 L CNN
	1    4050 2850
	0    -1   1    0   
$EndComp
Connection ~ 3400 2200
Wire Wire Line
	3400 2200 3400 2300
Wire Wire Line
	3800 1350 4400 1350
Wire Wire Line
	4550 1350 4550 2550
$Comp
L Device:R_Small_US R2
U 1 1 60B712CE
P 4550 2650
F 0 "R2" H 4618 2696 50  0000 L CNN
F 1 "20k" H 4618 2605 50  0000 L CNN
F 2 "" H 4550 2650 50  0001 C CNN
F 3 "~" H 4550 2650 50  0001 C CNN
	1    4550 2650
	1    0    0    -1  
$EndComp
$Comp
L Device:R_Small_US R3
U 1 1 60B712D4
P 4550 3750
F 0 "R3" H 4618 3796 50  0000 L CNN
F 1 "10k" H 4618 3705 50  0000 L CNN
F 2 "" H 4550 3750 50  0001 C CNN
F 3 "~" H 4550 3750 50  0001 C CNN
	1    4550 3750
	1    0    0    -1  
$EndComp
Wire Wire Line
	4550 3850 4550 4250
Wire Wire Line
	5150 1350 5150 2250
$Comp
L Device:R_Small_US R8
U 1 1 60B712F1
P 5150 2350
F 0 "R8" H 5218 2396 50  0000 L CNN
F 1 "1k" H 5218 2305 50  0000 L CNN
F 2 "" H 5150 2350 50  0001 C CNN
F 3 "~" H 5150 2350 50  0001 C CNN
	1    5150 2350
	1    0    0    -1  
$EndComp
Wire Wire Line
	2850 1800 2850 1650
Wire Wire Line
	2450 1800 2450 1350
Wire Wire Line
	2450 1350 2650 1350
Wire Wire Line
	1400 2650 1400 2850
Wire Wire Line
	4550 2750 4550 3400
Wire Wire Line
	1750 2850 1400 2850
Connection ~ 1400 2850
Wire Wire Line
	1400 2850 1400 3250
Wire Wire Line
	2750 2950 2350 2950
Wire Wire Line
	2950 2950 3250 2950
Wire Wire Line
	3250 2950 3250 2250
Wire Wire Line
	3250 2250 2650 2250
Wire Wire Line
	2650 2250 2650 2100
Connection ~ 3250 2950
Wire Wire Line
	3050 1350 3400 1350
Wire Wire Line
	4050 2650 4050 2200
Wire Wire Line
	4050 2200 3400 2200
Wire Wire Line
	3250 2950 3850 2950
Wire Wire Line
	4400 2950 4400 1350
Wire Wire Line
	4400 2950 4250 2950
Connection ~ 4400 1350
Wire Wire Line
	4400 1350 4550 1350
Wire Wire Line
	1750 3050 1650 3050
Wire Wire Line
	1650 3400 4550 3400
Wire Wire Line
	1650 3050 1650 3400
Connection ~ 4550 3400
Wire Wire Line
	4550 3400 4550 3650
Wire Wire Line
	4550 1350 5150 1350
Connection ~ 4550 1350
Wire Wire Line
	1400 4250 4550 4250
Wire Wire Line
	1400 3550 1400 4250
Connection ~ 4550 4250
Wire Wire Line
	5150 4250 4550 4250
Wire Wire Line
	5150 2450 5150 4250
$Comp
L Device:R_Small_US R9
U 1 1 60B8E8F4
P 5750 1800
F 0 "R9" H 5818 1846 50  0000 L CNN
F 1 "100" H 5818 1755 50  0000 L CNN
F 2 "" H 5750 1800 50  0001 C CNN
F 3 "~" H 5750 1800 50  0001 C CNN
	1    5750 1800
	1    0    0    -1  
$EndComp
$Comp
L Device:R_Small_US R10
U 1 1 60B90132
P 6650 1800
F 0 "R10" H 6718 1846 50  0000 L CNN
F 1 "100" H 6718 1755 50  0000 L CNN
F 2 "" H 6650 1800 50  0001 C CNN
F 3 "~" H 6650 1800 50  0001 C CNN
	1    6650 1800
	1    0    0    -1  
$EndComp
$Comp
L Device:LED D1
U 1 1 60B9093F
P 5750 2600
F 0 "D1" V 5789 2483 50  0000 R CNN
F 1 "0.7" V 5698 2483 50  0000 R CNN
F 2 "" H 5750 2600 50  0001 C CNN
F 3 "~" H 5750 2600 50  0001 C CNN
	1    5750 2600
	0    -1   -1   0   
$EndComp
$Comp
L Device:LED D2
U 1 1 60B91D1A
P 6650 2650
F 0 "D2" V 6689 2533 50  0000 R CNN
F 1 "0.7" V 6598 2533 50  0000 R CNN
F 2 "" H 6650 2650 50  0001 C CNN
F 3 "~" H 6650 2650 50  0001 C CNN
	1    6650 2650
	0    -1   -1   0   
$EndComp
$Comp
L Device:R_Small_US R12
U 1 1 60B93244
P 6250 3200
F 0 "R12" V 6045 3200 50  0000 C CNN
F 1 "1k" V 6136 3200 50  0000 C CNN
F 2 "" H 6250 3200 50  0001 C CNN
F 3 "~" H 6250 3200 50  0001 C CNN
	1    6250 3200
	0    1    1    0   
$EndComp
$Comp
L Device:Q_NPN_BEC Q3
U 1 1 60B949D1
P 6550 3200
F 0 "Q3" H 6741 3246 50  0000 L CNN
F 1 "Q_NPN_BEC" H 6741 3155 50  0000 L CNN
F 2 "" H 6750 3300 50  0001 C CNN
F 3 "~" H 6550 3200 50  0001 C CNN
	1    6550 3200
	1    0    0    -1  
$EndComp
$Comp
L Device:Q_NPN_BEC Q4
U 1 1 60B969EF
P 7750 3200
F 0 "Q4" H 7941 3246 50  0000 L CNN
F 1 "Q_NPN_BEC" H 7941 3155 50  0000 L CNN
F 2 "" H 7950 3300 50  0001 C CNN
F 3 "~" H 7750 3200 50  0001 C CNN
	1    7750 3200
	1    0    0    -1  
$EndComp
$Comp
L Device:R_Small_US R13
U 1 1 60B977B8
P 7450 3200
F 0 "R13" V 7245 3200 50  0000 C CNN
F 1 "1k" V 7336 3200 50  0000 C CNN
F 2 "" H 7450 3200 50  0001 C CNN
F 3 "~" H 7450 3200 50  0001 C CNN
	1    7450 3200
	0    1    1    0   
$EndComp
$Comp
L Device:LED D3
U 1 1 60B9815D
P 7850 2650
F 0 "D3" V 7889 2533 50  0000 R CNN
F 1 "0.7" V 7798 2533 50  0000 R CNN
F 2 "" H 7850 2650 50  0001 C CNN
F 3 "~" H 7850 2650 50  0001 C CNN
	1    7850 2650
	0    -1   -1   0   
$EndComp
$Comp
L Device:R_Small_US R11
U 1 1 60B98C10
P 7850 1800
F 0 "R11" H 7918 1846 50  0000 L CNN
F 1 "100" H 7918 1755 50  0000 L CNN
F 2 "" H 7850 1800 50  0001 C CNN
F 3 "~" H 7850 1800 50  0001 C CNN
	1    7850 1800
	1    0    0    -1  
$EndComp
Wire Wire Line
	5150 1350 5750 1350
Wire Wire Line
	7850 1350 7850 1700
Wire Wire Line
	7850 4250 6650 4250
Wire Wire Line
	7850 1900 7850 2500
Connection ~ 5150 1350
Connection ~ 5150 4250
Wire Wire Line
	7850 2800 7850 3000
Wire Wire Line
	7850 3400 7850 4250
Wire Wire Line
	6650 1350 6650 1700
Wire Wire Line
	6650 1900 6650 2500
Wire Wire Line
	6650 2800 6650 3000
Connection ~ 6650 1350
Wire Wire Line
	6650 1350 7850 1350
Wire Wire Line
	6650 3400 6650 4250
Connection ~ 6650 4250
Wire Wire Line
	6650 4250 5750 4250
Wire Wire Line
	5750 2750 5750 4250
Connection ~ 5750 4250
Wire Wire Line
	5750 4250 5150 4250
Wire Wire Line
	5750 2450 5750 1900
Wire Wire Line
	5750 1700 5750 1350
Connection ~ 5750 1350
Wire Wire Line
	5750 1350 6650 1350
Text GLabel 6150 3200 0    50   Input ~ 0
control
Text GLabel 7350 3200 0    50   Input ~ 0
control
$Comp
L Device:R_Small_US R15
U 1 1 60BAB7D3
P 1350 5450
F 0 "R15" V 1145 5450 50  0000 C CNN
F 1 "1.6k" V 1236 5450 50  0000 C CNN
F 2 "" H 1350 5450 50  0001 C CNN
F 3 "~" H 1350 5450 50  0001 C CNN
	1    1350 5450
	0    1    1    0   
$EndComp
$Comp
L Device:R_Small_US R16
U 1 1 60BAD12D
P 1550 5900
F 0 "R16" H 1618 5946 50  0000 L CNN
F 1 "3.3k" H 1618 5855 50  0000 L CNN
F 2 "" H 1550 5900 50  0001 C CNN
F 3 "~" H 1550 5900 50  0001 C CNN
	1    1550 5900
	1    0    0    -1  
$EndComp
$Comp
L Device:R_Small_US R17
U 1 1 60BAEB15
P 2250 6050
F 0 "R17" H 2318 6096 50  0000 L CNN
F 1 "122" H 2318 6005 50  0000 L CNN
F 2 "" H 2250 6050 50  0001 C CNN
F 3 "~" H 2250 6050 50  0001 C CNN
	1    2250 6050
	1    0    0    -1  
$EndComp
$Comp
L Device:R_Small_US R18
U 1 1 60BAFB1B
P 3050 6050
F 0 "R18" H 3118 6096 50  0000 L CNN
F 1 "20k" H 3118 6005 50  0000 L CNN
F 2 "" H 3050 6050 50  0001 C CNN
F 3 "~" H 3050 6050 50  0001 C CNN
	1    3050 6050
	1    0    0    -1  
$EndComp
Wire Wire Line
	7850 1350 7850 600 
Wire Wire Line
	7850 600  750  600 
Wire Wire Line
	3050 5450 3050 5950
Wire Wire Line
	750  600  750  5450
Connection ~ 7850 1350
Wire Wire Line
	2250 5450 2250 5950
Wire Wire Line
	1450 5450 1550 5450
Connection ~ 2250 5450
Wire Wire Line
	2250 5450 3050 5450
$Comp
L Device:R_Small_US R20
U 1 1 60BBA14D
P 3050 6850
F 0 "R20" H 3118 6896 50  0000 L CNN
F 1 "20k" H 3118 6805 50  0000 L CNN
F 2 "" H 3050 6850 50  0001 C CNN
F 3 "~" H 3050 6850 50  0001 C CNN
	1    3050 6850
	1    0    0    -1  
$EndComp
Wire Wire Line
	2250 7250 2650 7250
Wire Wire Line
	3050 6950 3050 7250
Wire Wire Line
	2650 7250 2650 7400
Connection ~ 2650 7250
Wire Wire Line
	2650 7250 3050 7250
Wire Wire Line
	1550 5450 1550 5800
Connection ~ 1550 5450
Wire Wire Line
	1550 5450 2250 5450
$Comp
L Device:R_Small_US R19
U 1 1 60BD2742
P 2250 7100
F 0 "R19" H 2318 7146 50  0000 L CNN
F 1 "5" H 2318 7055 50  0000 L CNN
F 2 "" H 2250 7100 50  0001 C CNN
F 3 "~" H 2250 7100 50  0001 C CNN
	1    2250 7100
	1    0    0    -1  
$EndComp
$Comp
L Amplifier_Operational:LM358 U2
U 1 1 60BD68A9
P 3750 6400
F 0 "U2" H 3750 6767 50  0000 C CNN
F 1 "LM358" H 3750 6676 50  0000 C CNN
F 2 "" H 3750 6400 50  0001 C CNN
F 3 "http://www.ti.com/lit/ds/symlink/lm2904-n.pdf" H 3750 6400 50  0001 C CNN
	1    3750 6400
	1    0    0    -1  
$EndComp
Wire Wire Line
	750  5450 850  5450
$Comp
L Device:R_Small_US R14
U 1 1 60B785A0
P 950 5450
F 0 "R14" V 745 5450 50  0000 C CNN
F 1 "100" V 836 5450 50  0000 C CNN
F 2 "" H 950 5450 50  0001 C CNN
F 3 "~" H 950 5450 50  0001 C CNN
	1    950  5450
	0    1    1    0   
$EndComp
Wire Wire Line
	1050 5450 1250 5450
$Comp
L Sensor_Temperature:PT100 TH1
U 1 1 60B86157
P 2250 6700
F 0 "TH1" H 2348 6746 50  0000 L CNN
F 1 "PT100" H 2348 6655 50  0000 L CNN
F 2 "" H 2250 6750 50  0001 C CNN
F 3 "https://www.heraeus.com/media/media/group/doc_group/products_1/hst/sot_to/de_15/to_92_d.pdf" H 2250 6750 50  0001 C CNN
	1    2250 6700
	1    0    0    -1  
$EndComp
Wire Wire Line
	2250 6150 2250 6300
Wire Wire Line
	2250 7200 2250 7250
Wire Wire Line
	2250 6850 2250 7000
Wire Wire Line
	4050 6400 4400 6400
Wire Wire Line
	3050 6150 3050 6500
Wire Wire Line
	3450 6300 2250 6300
Connection ~ 2250 6300
Wire Wire Line
	2250 6300 2250 6550
Connection ~ 3050 6500
Wire Wire Line
	3050 6500 3050 6750
$Comp
L Device:R_Small_US R21
U 1 1 60BC514E
P 4050 6950
F 0 "R21" H 4118 6996 50  0000 L CNN
F 1 "100k" H 4118 6905 50  0000 L CNN
F 2 "" H 4050 6950 50  0001 C CNN
F 3 "~" H 4050 6950 50  0001 C CNN
	1    4050 6950
	0    -1   -1   0   
$EndComp
Wire Wire Line
	4400 6400 4400 6950
Wire Wire Line
	3450 6950 3450 6500
Wire Wire Line
	3450 6950 3950 6950
Wire Wire Line
	4150 6950 4400 6950
Connection ~ 4400 6400
Connection ~ 3450 6500
Wire Wire Line
	3050 6500 3450 6500
$Comp
L Amplifier_Operational:LM358 U1
U 1 1 60BDB940
P 2050 2950
F 0 "U1" H 2050 3317 50  0000 C CNN
F 1 "LM358" H 2050 3226 50  0000 C CNN
F 2 "" H 2050 2950 50  0001 C CNN
F 3 "http://www.ti.com/lit/ds/symlink/lm2904-n.pdf" H 2050 2950 50  0001 C CNN
	1    2050 2950
	1    0    0    -1  
$EndComp
Text GLabel 4650 6400 2    50   Input ~ 0
control
Wire Wire Line
	4400 6400 4650 6400
Wire Wire Line
	1400 2450 1400 1350
Wire Wire Line
	1400 1350 2450 1350
Connection ~ 2450 1350
Wire Wire Line
	4550 5650 5200 5650
Wire Wire Line
	1550 7400 2650 7400
Wire Wire Line
	1550 6000 1550 7400
Wire Wire Line
	2650 7400 4850 7400
Wire Wire Line
	4850 7400 4850 7150
Connection ~ 2650 7400
Wire Wire Line
	1400 1350 1400 1150
Connection ~ 1400 1350
Wire Wire Line
	4550 4250 4550 4800
$Comp
L Device:R_Small_US R25
U 1 1 60C1CDF5
P 4550 4900
F 0 "R25" H 4615 4946 50  0000 L CNN
F 1 "10k" H 4618 4855 50  0000 L CNN
F 2 "" H 4550 4900 50  0001 C CNN
F 3 "~" H 4550 4900 50  0001 C CNN
	1    4550 4900
	1    0    0    -1  
$EndComp
Wire Wire Line
	4550 5000 4550 5650
Wire Wire Line
	3400 2500 3400 5650
Wire Wire Line
	3400 5650 4550 5650
Connection ~ 4550 5650
Wire Wire Line
	4850 7150 5200 7150
Wire Wire Line
	5200 7150 5200 5650
Text GLabel 1400 1150 0    50   Input ~ 0
control
Text GLabel 5200 7350 3    50   Input ~ 0
control
Wire Wire Line
	5200 7150 5200 7350
Connection ~ 5200 7150
$Comp
L Connector:Conn_01x02_Male J?
U 1 1 60BA14E4
P 1000 2800
F 0 "J?" H 1108 2981 50  0000 C CNN
F 1 "Conn_01x02_Male" H 1108 2890 50  0000 C CNN
F 2 "" H 1000 2800 50  0001 C CNN
F 3 "~" H 1000 2800 50  0001 C CNN
	1    1000 2800
	1    0    0    -1  
$EndComp
$EndSCHEMATC
